<?xml version="1.0"?>
<sdf version="1.4">
<world name="racecar_cones">
    <scene>
        <ambient>0.75 0.75 0.75 1.0</ambient>
        <shadows>0</shadows>
    </scene>

    <gravity>0 0 -9.81</gravity>

    <physics type="ode" default="true">
      <real_time_update_rate>1000</real_time_update_rate>
      <max_step_size>0.001</max_step_size>
      <!--
      <ode>
        <solver>
          <type>quick</type>
          <iters>70</iters>
        </solver>
      </ode>
      -->
      <!--
      <ode>
        <solver>
          <type>quick</type>
          <iters>70</iters>
        </solver>
      </ode>
      <max_step_size>0.001</max_step_size>
      <real_time_update_rate>1000</real_time_update_rate>
      -->
    </physics>

    <!--
    <physics name="ode_70iters" type="ode">
      <real_time_update_rate>1500</real_time_update_rate>
      <ode>
        <solver>
          <type>quick</type>
          <iters>70</iters>
        </solver>
      </ode>
    </physics>

    <physics name="ode_200iters" type="ode" >
      <ode>
        <solver>
          <type>quick</type>
          <iters>200</iters>
        </solver>
      </ode>
    </physics>
    -->
  <include>
    <uri>model://sun</uri>
  </include>

  <model name="ground_plane">
    <static>true</static>
    <link name="link">
      <collision name="collision">
        <geometry>
          <plane>
            <normal>0 0 1</normal>
            <size>150 150</size>
          </plane>
        </geometry>
        <surface>
          <friction>
            <ode>
              <mu>100</mu>
              <mu2>50</mu2>
            </ode>
          </friction>
        </surface>
      </collision>
      <visual name="visual">
        <cast_shadows>false</cast_shadows>
        <geometry>
          <plane>
            <normal>0 0 1</normal>
            <size>150 150</size>
          </plane>
        </geometry>
        <material>
          <script>
            <uri>file://media/materials/scripts/gazebo.material</uri>
            <name>Gazebo/Grey</name>
          </script>
        </material>
      </visual>
    </link>
  </model>
<include>
    <uri>model://racecar_description/models/cone</uri>
    <pose>-6 -4.1 0 0 0 0</pose>
    <static>true</static>
    <name>item0</name>
</include>
<include>
    <uri>model://racecar_description/models/cone</uri>
    <pose>-5.8 -4.5 0 0 0 0</pose>
    <static>true</static>
    <name>item1</name>
</include>
<include>
    <uri>model://racecar_description/models/cone</uri>
    <pose>-5.6 -4.8 0 0 0 0</pose>
    <static>true</static>
    <name>item2</name>
</include>
<include>
    <uri>model://racecar_description/models/cone</uri>
    <pose>-5.4 -5.1 0 0 0 0</pose>
    <static>true</static>
    <name>item3</name>
</include>
<include>
    <uri>model://racecar_description/models/cone</uri>
    <pose>-5.1 -5.4 0 0 0 0</pose>
    <static>true</static>
    <name>item4</name>
</include>
<include>
    <uri>model://racecar_description/models/cone</uri>
    <pose>-4.7 -5.6 0 0 0 0</pose>
    <static>true</static>
    <name>item5</name>
</include>
<include>
    <uri>model://racecar_description/models/cone</uri>
    <pose>-4.4 -5.8 0 0 0 0</pose>
    <static>true</static>
    <name>item6</name>
</include>
<include>
    <uri>model://racecar_description/models/cone</uri>
    <pose>-4 -6 0 0 0 0</pose>
    <static>true</static>
    <name>item7</name>
</include>
<include>
    <uri>model://racecar_description/models/cone</uri>
    <pose>-3.6 -6.1 0 0 0 0</pose>
    <static>true</static>
    <name>item8</name>
</include>
<include>
    <uri>model://racecar_description/models/cone</uri>
    <pose>-3.3 -6.2 0 0 0 0</pose>
    <static>true</static>
    <name>item9</name>
</include>
<include>
    <uri>model://racecar_description/models/cone</uri>
    <pose>-2.9 -6.2 0 0 0 0</pose>
    <static>true</static>
    <name>item10</name>
</include>
<include>
    <uri>model://racecar_description/models/cone</uri>
    <pose>-2.5 -6.2 0 0 0 0</pose>
    <static>true</static>
    <name>item11</name>
</include>
<include>
    <uri>model://racecar_description/models/cone</uri>
    <pose>-2.1 -6.2 0 0 0 0</pose>
    <static>true</static>
    <name>item12</name>
</include>
<include>
    <uri>model://racecar_description/models/cone</uri>
    <pose>-1.7 -6.2 0 0 0 0</pose>
    <static>true</static>
    <name>item13</name>
</include>
<include>
    <uri>model://racecar_description/models/cone</uri>
    <pose>-1.3 -6.2 0 0 0 0</pose>
    <static>true</static>
    <name>item14</name>
</include>
<include>
    <uri>model://racecar_description/models/cone</uri>
    <pose>-0.9 -6.2 0 0 0 0</pose>
    <static>true</static>
    <name>item15</name>
</include>
<include>
    <uri>model://racecar_description/models/cone</uri>
    <pose>-0.5 -6.2 0 0 0 0</pose>
    <static>true</static>
    <name>item16</name>
</include>
<include>
    <uri>model://racecar_description/models/cone</uri>
    <pose>-0.1 -6.2 0 0 0 0</pose>
    <static>true</static>
    <name>item17</name>
</include>
<include>
    <uri>model://racecar_description/models/cone</uri>
    <pose>0.3 -6.2 0 0 0 0</pose>
    <static>true</static>
    <name>item18</name>
</include>
<include>
    <uri>model://racecar_description/models/cone</uri>
    <pose>0.7 -6.1 0 0 0 0</pose>
    <static>true</static>
    <name>item19</name>
</include>
<include>
    <uri>model://racecar_description/models/cone</uri>
    <pose>1.1 -6 0 0 0 0</pose>
    <static>true</static>
    <name>item20</name>
</include>
<include>
    <uri>model://racecar_description/models/cone</uri>
    <pose>1.5 -5.9 0 0 0 0</pose>
    <static>true</static>
    <name>item21</name>
</include>
<include>
    <uri>model://racecar_description/models/cone</uri>
    <pose>1.8 -5.7 0 0 0 0</pose>
    <static>true</static>
    <name>item22</name>
</include>
<include>
    <uri>model://racecar_description/models/cone</uri>
    <pose>2.2 -5.5 0 0 0 0</pose>
    <static>true</static>
    <name>item23</name>
</include>
<include>
    <uri>model://racecar_description/models/cone</uri>
    <pose>2.5 -5.3 0 0 0 0</pose>
    <static>true</static>
    <name>item24</name>
</include>
<include>
    <uri>model://racecar_description/models/cone</uri>
    <pose>2.9 -5.1 0 0 0 0</pose>
    <static>true</static>
    <name>item25</name>
</include>
<include>
    <uri>model://racecar_description/models/cone</uri>
    <pose>3.2 -4.9 0 0 0 0</pose>
    <static>true</static>
    <name>item26</name>
</include>
<include>
    <uri>model://racecar_description/models/cone</uri>
    <pose>3.6 -4.7 0 0 0 0</pose>
    <static>true</static>
    <name>item27</name>
</include>
<include>
    <uri>model://racecar_description/models/cone</uri>
    <pose>3.9 -4.5 0 0 0 0</pose>
    <static>true</static>
    <name>item28</name>
</include>
<include>
    <uri>model://racecar_description/models/cone</uri>
    <pose>4.2 -4.3 0 0 0 0</pose>
    <static>true</static>
    <name>item29</name>
</include>
<include>
    <uri>model://racecar_description/models/cone</uri>
    <pose>4.5 -4 0 0 0 0</pose>
    <static>true</static>
    <name>item30</name>
</include>
<include>
    <uri>model://racecar_description/models/cone</uri>
    <pose>4.8 -3.7 0 0 0 0</pose>
    <static>true</static>
    <name>item31</name>
</include>
<include>
    <uri>model://racecar_description/models/cone</uri>
    <pose>5.1 -3.4 0 0 0 0</pose>
    <static>true</static>
    <name>item32</name>
</include>
<include>
    <uri>model://racecar_description/models/cone</uri>
    <pose>5.3 -3.1 0 0 0 0</pose>
    <static>true</static>
    <name>item33</name>
</include>
<include>
    <uri>model://racecar_description/models/cone</uri>
    <pose>5.5 -2.8 0 0 0 0</pose>
    <static>true</static>
    <name>item34</name>
</include>
<include>
    <uri>model://racecar_description/models/cone</uri>
    <pose>5.7 -2.4 0 0 0 0</pose>
    <static>true</static>
    <name>item35</name>
</include>
<include>
    <uri>model://racecar_description/models/cone</uri>
    <pose>5.8 -2 0 0 0 0</pose>
    <static>true</static>
    <name>item36</name>
</include>
<include>
    <uri>model://racecar_description/models/cone</uri>
    <pose>5.9 -1.6 0 0 0 0</pose>
    <static>true</static>
    <name>item37</name>
</include>
<include>
    <uri>model://racecar_description/models/cone</uri>
    <pose>5.9 -1.2 0 0 0 0</pose>
    <static>true</static>
    <name>item38</name>
</include>
<include>
    <uri>model://racecar_description/models/cone</uri>
    <pose>6 -0.8 0 0 0 0</pose>
    <static>true</static>
    <name>item39</name>
</include>
<include>
    <uri>model://racecar_description/models/cone</uri>
    <pose>6.1 -0.4 0 0 0 0</pose>
    <static>true</static>
    <name>item40</name>
</include>
<include>
    <uri>model://racecar_description/models/cone</uri>
    <pose>6.2 -0.1 0 0 0 0</pose>
    <static>true</static>
    <name>item41</name>
</include>
<include>
    <uri>model://racecar_description/models/cone</uri>
    <pose>6.3 0.3 0 0 0 0</pose>
    <static>true</static>
    <name>item42</name>
</include>
<include>
    <uri>model://racecar_description/models/cone</uri>
    <pose>6.4 0.7 0 0 0 0</pose>
    <static>true</static>
    <name>item43</name>
</include>
<include>
    <uri>model://racecar_description/models/cone</uri>
    <pose>6.4 1.1 0 0 0 0</pose>
    <static>true</static>
    <name>item44</name>
</include>
<include>
    <uri>model://racecar_description/models/cone</uri>
    <pose>6.3 1.5 0 0 0 0</pose>
    <static>true</static>
    <name>item45</name>
</include>
<include>
    <uri>model://racecar_description/models/cone</uri>
    <pose>6.2 1.9 0 0 0 0</pose>
    <static>true</static>
    <name>item46</name>
</include>
<include>
    <uri>model://racecar_description/models/cone</uri>
    <pose>6 2.3 0 0 0 0</pose>
    <static>true</static>
    <name>item47</name>
</include>
<include>
    <uri>model://racecar_description/models/cone</uri>
    <pose>5.9 2.6 0 0 0 0</pose>
    <static>true</static>
    <name>item48</name>
</include>
<include>
    <uri>model://racecar_description/models/cone</uri>
    <pose>5.7 3 0 0 0 0</pose>
    <static>true</static>
    <name>item49</name>
</include>
<include>
    <uri>model://racecar_description/models/cone</uri>
    <pose>5.4 3.3 0 0 0 0</pose>
    <static>true</static>
    <name>item50</name>
</include>
<include>
    <uri>model://racecar_description/models/cone</uri>
    <pose>5.1 3.5 0 0 0 0</pose>
    <static>true</static>
    <name>item51</name>
</include>
<include>
    <uri>model://racecar_description/models/cone</uri>
    <pose>4.7 3.7 0 0 0 0</pose>
    <static>true</static>
    <name>item52</name>
</include>
<include>
    <uri>model://racecar_description/models/cone</uri>
    <pose>4.4 3.8 0 0 0 0</pose>
    <static>true</static>
    <name>item53</name>
</include>
<include>
    <uri>model://racecar_description/models/cone</uri>
    <pose>4 4 0 0 0 0</pose>
    <static>true</static>
    <name>item54</name>
</include>
<include>
    <uri>model://racecar_description/models/cone</uri>
    <pose>3.6 4.1 0 0 0 0</pose>
    <static>true</static>
    <name>item55</name>
</include>
<include>
    <uri>model://racecar_description/models/cone</uri>
    <pose>3.2 4.2 0 0 0 0</pose>
    <static>true</static>
    <name>item56</name>
</include>
<include>
    <uri>model://racecar_description/models/cone</uri>
    <pose>2.9 4.4 0 0 0 0</pose>
    <static>true</static>
    <name>item57</name>
</include>
<include>
    <uri>model://racecar_description/models/cone</uri>
    <pose>2.5 4.5 0 0 0 0</pose>
    <static>true</static>
    <name>item58</name>
</include>
<include>
    <uri>model://racecar_description/models/cone</uri>
    <pose>2.1 4.7 0 0 0 0</pose>
    <static>true</static>
    <name>item59</name>
</include>
<include>
    <uri>model://racecar_description/models/cone</uri>
    <pose>1.8 4.9 0 0 0 0</pose>
    <static>true</static>
    <name>item60</name>
</include>
<include>
    <uri>model://racecar_description/models/cone</uri>
    <pose>1.4 5 0 0 0 0</pose>
    <static>true</static>
    <name>item61</name>
</include>
<include>
    <uri>model://racecar_description/models/cone</uri>
    <pose>1 5.1 0 0 0 0</pose>
    <static>true</static>
    <name>item62</name>
</include>
<include>
    <uri>model://racecar_description/models/cone</uri>
    <pose>0.6 5.1 0 0 0 0</pose>
    <static>true</static>
    <name>item63</name>
</include>
<include>
    <uri>model://racecar_description/models/cone</uri>
    <pose>0.2 5.1 0 0 0 0</pose>
    <static>true</static>
    <name>item64</name>
</include>
<include>
    <uri>model://racecar_description/models/cone</uri>
    <pose>-0.2 5 0 0 0 0</pose>
    <static>true</static>
    <name>item65</name>
</include>
<include>
    <uri>model://racecar_description/models/cone</uri>
    <pose>-0.6 4.9 0 0 0 0</pose>
    <static>true</static>
    <name>item66</name>
</include>
<include>
    <uri>model://racecar_description/models/cone</uri>
    <pose>-1 4.9 0 0 0 0</pose>
    <static>true</static>
    <name>item67</name>
</include>
<include>
    <uri>model://racecar_description/models/cone</uri>
    <pose>-1.4 4.8 0 0 0 0</pose>
    <static>true</static>
    <name>item68</name>
</include>
<include>
    <uri>model://racecar_description/models/cone</uri>
    <pose>-1.8 4.8 0 0 0 0</pose>
    <static>true</static>
    <name>item69</name>
</include>
<include>
    <uri>model://racecar_description/models/cone</uri>
    <pose>-2.2 4.7 0 0 0 0</pose>
    <static>true</static>
    <name>item70</name>
</include>
<include>
    <uri>model://racecar_description/models/cone</uri>
    <pose>-2.5 4.6 0 0 0 0</pose>
    <static>true</static>
    <name>item71</name>
</include>
<include>
    <uri>model://racecar_description/models/cone</uri>
    <pose>-2.9 4.5 0 0 0 0</pose>
    <static>true</static>
    <name>item72</name>
</include>
<include>
    <uri>model://racecar_description/models/cone</uri>
    <pose>-3.3 4.3 0 0 0 0</pose>
    <static>true</static>
    <name>item73</name>
</include>
<include>
    <uri>model://racecar_description/models/cone</uri>
    <pose>-3.7 4.2 0 0 0 0</pose>
    <static>true</static>
    <name>item74</name>
</include>
<include>
    <uri>model://racecar_description/models/cone</uri>
    <pose>-4 4 0 0 0 0</pose>
    <static>true</static>
    <name>item75</name>
</include>
<include>
    <uri>model://racecar_description/models/cone</uri>
    <pose>-4.4 3.8 0 0 0 0</pose>
    <static>true</static>
    <name>item76</name>
</include>
<include>
    <uri>model://racecar_description/models/cone</uri>
    <pose>-4.7 3.5 0 0 0 0</pose>
    <static>true</static>
    <name>item77</name>
</include>
<include>
    <uri>model://racecar_description/models/cone</uri>
    <pose>-5 3.3 0 0 0 0</pose>
    <static>true</static>
    <name>item78</name>
</include>
<include>
    <uri>model://racecar_description/models/cone</uri>
    <pose>-5.3 3.1 0 0 0 0</pose>
    <static>true</static>
    <name>item79</name>
</include>
<include>
    <uri>model://racecar_description/models/cone</uri>
    <pose>-5.6 2.8 0 0 0 0</pose>
    <static>true</static>
    <name>item80</name>
</include>
<include>
    <uri>model://racecar_description/models/cone</uri>
    <pose>-5.9 2.5 0 0 0 0</pose>
    <static>true</static>
    <name>item81</name>
</include>
<include>
    <uri>model://racecar_description/models/cone</uri>
    <pose>-6.2 2.2 0 0 0 0</pose>
    <static>true</static>
    <name>item82</name>
</include>
<include>
    <uri>model://racecar_description/models/cone</uri>
    <pose>-6.4 1.9 0 0 0 0</pose>
    <static>true</static>
    <name>item83</name>
</include>
<include>
    <uri>model://racecar_description/models/cone</uri>
    <pose>-6.6 1.6 0 0 0 0</pose>
    <static>true</static>
    <name>item84</name>
</include>
<include>
    <uri>model://racecar_description/models/cone</uri>
    <pose>-6.8 1.2 0 0 0 0</pose>
    <static>true</static>
    <name>item85</name>
</include>
<include>
    <uri>model://racecar_description/models/cone</uri>
    <pose>-6.9 0.8 0 0 0 0</pose>
    <static>true</static>
    <name>item86</name>
</include>
<include>
    <uri>model://racecar_description/models/cone</uri>
    <pose>-7 0.4 0 0 0 0</pose>
    <static>true</static>
    <name>item87</name>
</include>
<include>
    <uri>model://racecar_description/models/cone</uri>
    <pose>-7 0 0 0 0 0</pose>
    <static>true</static>
    <name>item88</name>
</include>
<include>
    <uri>model://racecar_description/models/cone</uri>
    <pose>-6.9 -0.4 0 0 0 0</pose>
    <static>true</static>
    <name>item89</name>
</include>
<include>
    <uri>model://racecar_description/models/cone</uri>
    <pose>-6.8 -0.8 0 0 0 0</pose>
    <static>true</static>
    <name>item90</name>
</include>
<include>
    <uri>model://racecar_description/models/cone</uri>
    <pose>-6.7 -1.1 0 0 0 0</pose>
    <static>true</static>
    <name>item91</name>
</include>
<include>
    <uri>model://racecar_description/models/cone</uri>
    <pose>-6.5 -1.5 0 0 0 0</pose>
    <static>true</static>
    <name>item92</name>
</include>
<include>
    <uri>model://racecar_description/models/cone</uri>
    <pose>-6.3 -1.9 0 0 0 0</pose>
    <static>true</static>
    <name>item93</name>
</include>
<include>
    <uri>model://racecar_description/models/cone</uri>
    <pose>-6.2 -2.2 0 0 0 0</pose>
    <static>true</static>
    <name>item94</name>
</include>
<include>
    <uri>model://racecar_description/models/cone</uri>
    <pose>-6 -2.6 0 0 0 0</pose>
    <static>true</static>
    <name>item95</name>
</include>
<include>
    <uri>model://racecar_description/models/cone</uri>
    <pose>-5.8 -2.9 0 0 0 0</pose>
    <static>true</static>
    <name>item96</name>
</include>
<include>
    <uri>model://racecar_description/models/cone</uri>
    <pose>-5.8 -3.3 0 0 0 0</pose>
    <static>true</static>
    <name>item97</name>
</include>
<include>
    <uri>model://racecar_description/models/cone</uri>
    <pose>-5.9 -3.7 0 0 0 0</pose>
    <static>true</static>
    <name>item98</name>
</include>
<include>
    <uri>model://racecar_description/models/cone</uri>
    <pose>-6 -4.1 0 0 0 0</pose>
    <static>true</static>
    <name>item99</name>
</include>
<include>
    <uri>model://racecar_description/models/cone</uri>
    <pose>-3.1 -2.4 0 0 0 0</pose>
    <static>true</static>
    <name>item100</name>
</include>
<include>
    <uri>model://racecar_description/models/cone</uri>
    <pose>-3 -2.7 0 0 0 0</pose>
    <static>true</static>
    <name>item101</name>
</include>
<include>
    <uri>model://racecar_description/models/cone</uri>
    <pose>-2.7 -3 0 0 0 0</pose>
    <static>true</static>
    <name>item102</name>
</include>
<include>
    <uri>model://racecar_description/models/cone</uri>
    <pose>-2.3 -3.2 0 0 0 0</pose>
    <static>true</static>
    <name>item103</name>
</include>
<include>
    <uri>model://racecar_description/models/cone</uri>
    <pose>-2 -3.3 0 0 0 0</pose>
    <static>true</static>
    <name>item104</name>
</include>
<include>
    <uri>model://racecar_description/models/cone</uri>
    <pose>-1.6 -3.4 0 0 0 0</pose>
    <static>true</static>
    <name>item105</name>
</include>
<include>
    <uri>model://racecar_description/models/cone</uri>
    <pose>-1.2 -3.4 0 0 0 0</pose>
    <static>true</static>
    <name>item106</name>
</include>
<include>
    <uri>model://racecar_description/models/cone</uri>
    <pose>-0.8 -3.4 0 0 0 0</pose>
    <static>true</static>
    <name>item107</name>
</include>
<include>
    <uri>model://racecar_description/models/cone</uri>
    <pose>-0.4 -3.4 0 0 0 0</pose>
    <static>true</static>
    <name>item108</name>
</include>
<include>
    <uri>model://racecar_description/models/cone</uri>
    <pose>0 -3.4 0 0 0 0</pose>
    <static>true</static>
    <name>item109</name>
</include>
<include>
    <uri>model://racecar_description/models/cone</uri>
    <pose>0.4 -3.3 0 0 0 0</pose>
    <static>true</static>
    <name>item110</name>
</include>
<include>
    <uri>model://racecar_description/models/cone</uri>
    <pose>0.8 -3.1 0 0 0 0</pose>
    <static>true</static>
    <name>item111</name>
</include>
<include>
    <uri>model://racecar_description/models/cone</uri>
    <pose>1.1 -2.9 0 0 0 0</pose>
    <static>true</static>
    <name>item112</name>
</include>
<include>
    <uri>model://racecar_description/models/cone</uri>
    <pose>1.5 -2.8 0 0 0 0</pose>
    <static>true</static>
    <name>item113</name>
</include>
<include>
    <uri>model://racecar_description/models/cone</uri>
    <pose>1.8 -2.5 0 0 0 0</pose>
    <static>true</static>
    <name>item114</name>
</include>
<include>
    <uri>model://racecar_description/models/cone</uri>
    <pose>2.1 -2.3 0 0 0 0</pose>
    <static>true</static>
    <name>item115</name>
</include>
<include>
    <uri>model://racecar_description/models/cone</uri>
    <pose>2.4 -2 0 0 0 0</pose>
    <static>true</static>
    <name>item116</name>
</include>
<include>
    <uri>model://racecar_description/models/cone</uri>
    <pose>2.6 -1.7 0 0 0 0</pose>
    <static>true</static>
    <name>item117</name>
</include>
<include>
    <uri>model://racecar_description/models/cone</uri>
    <pose>2.7 -1.3 0 0 0 0</pose>
    <static>true</static>
    <name>item118</name>
</include>
<include>
    <uri>model://racecar_description/models/cone</uri>
    <pose>2.8 -0.9 0 0 0 0</pose>
    <static>true</static>
    <name>item119</name>
</include>
<include>
    <uri>model://racecar_description/models/cone</uri>
    <pose>2.9 -0.5 0 0 0 0</pose>
    <static>true</static>
    <name>item120</name>
</include>
<include>
    <uri>model://racecar_description/models/cone</uri>
    <pose>3 -0.1 0 0 0 0</pose>
    <static>true</static>
    <name>item121</name>
</include>
<include>
    <uri>model://racecar_description/models/cone</uri>
    <pose>3.1 0.3 0 0 0 0</pose>
    <static>true</static>
    <name>item122</name>
</include>
<include>
    <uri>model://racecar_description/models/cone</uri>
    <pose>2.9 0.7 0 0 0 0</pose>
    <static>true</static>
    <name>item123</name>
</include>
<include>
    <uri>model://racecar_description/models/cone</uri>
    <pose>2.8 1 0 0 0 0</pose>
    <static>true</static>
    <name>item124</name>
</include>
<include>
    <uri>model://racecar_description/models/cone</uri>
    <pose>2.6 1.4 0 0 0 0</pose>
    <static>true</static>
    <name>item125</name>
</include>
<include>
    <uri>model://racecar_description/models/cone</uri>
    <pose>2.2 1.5 0 0 0 0</pose>
    <static>true</static>
    <name>item126</name>
</include>
<include>
    <uri>model://racecar_description/models/cone</uri>
    <pose>1.9 1.7 0 0 0 0</pose>
    <static>true</static>
    <name>item127</name>
</include>
<include>
    <uri>model://racecar_description/models/cone</uri>
    <pose>1.5 1.8 0 0 0 0</pose>
    <static>true</static>
    <name>item128</name>
</include>
<include>
    <uri>model://racecar_description/models/cone</uri>
    <pose>1.1 2 0 0 0 0</pose>
    <static>true</static>
    <name>item129</name>
</include>
<include>
    <uri>model://racecar_description/models/cone</uri>
    <pose>0.7 2.2 0 0 0 0</pose>
    <static>true</static>
    <name>item130</name>
</include>
<include>
    <uri>model://racecar_description/models/cone</uri>
    <pose>0.4 2.3 0 0 0 0</pose>
    <static>true</static>
    <name>item131</name>
</include>
<include>
    <uri>model://racecar_description/models/cone</uri>
    <pose>0 2.3 0 0 0 0</pose>
    <static>true</static>
    <name>item132</name>
</include>
<include>
    <uri>model://racecar_description/models/cone</uri>
    <pose>-0.4 2.2 0 0 0 0</pose>
    <static>true</static>
    <name>item133</name>
</include>
<include>
    <uri>model://racecar_description/models/cone</uri>
    <pose>-0.8 2.1 0 0 0 0</pose>
    <static>true</static>
    <name>item134</name>
</include>
<include>
    <uri>model://racecar_description/models/cone</uri>
    <pose>-1.2 2.1 0 0 0 0</pose>
    <static>true</static>
    <name>item135</name>
</include>
<include>
    <uri>model://racecar_description/models/cone</uri>
    <pose>-1.6 2 0 0 0 0</pose>
    <static>true</static>
    <name>item136</name>
</include>
<include>
    <uri>model://racecar_description/models/cone</uri>
    <pose>-2 1.8 0 0 0 0</pose>
    <static>true</static>
    <name>item137</name>
</include>
<include>
    <uri>model://racecar_description/models/cone</uri>
    <pose>-2.3 1.6 0 0 0 0</pose>
    <static>true</static>
    <name>item138</name>
</include>
<include>
    <uri>model://racecar_description/models/cone</uri>
    <pose>-2.6 1.4 0 0 0 0</pose>
    <static>true</static>
    <name>item139</name>
</include>
<include>
    <uri>model://racecar_description/models/cone</uri>
    <pose>-3 1.1 0 0 0 0</pose>
    <static>true</static>
    <name>item140</name>
</include>
<include>
    <uri>model://racecar_description/models/cone</uri>
    <pose>-3.2 0.8 0 0 0 0</pose>
    <static>true</static>
    <name>item141</name>
</include>
<include>
    <uri>model://racecar_description/models/cone</uri>
    <pose>-3.5 0.5 0 0 0 0</pose>
    <static>true</static>
    <name>item142</name>
</include>
<include>
    <uri>model://racecar_description/models/cone</uri>
    <pose>-3.6 0.1 0 0 0 0</pose>
    <static>true</static>
    <name>item143</name>
</include>
<include>
    <uri>model://racecar_description/models/cone</uri>
    <pose>-3.6 -0.3 0 0 0 0</pose>
    <static>true</static>
    <name>item144</name>
</include>
<include>
    <uri>model://racecar_description/models/cone</uri>
    <pose>-3.5 -0.7 0 0 0 0</pose>
    <static>true</static>
    <name>item145</name>
</include>
<include>
    <uri>model://racecar_description/models/cone</uri>
    <pose>-3.4 -1 0 0 0 0</pose>
    <static>true</static>
    <name>item146</name>
</include>
<include>
    <uri>model://racecar_description/models/cone</uri>
    <pose>-3.2 -1.4 0 0 0 0</pose>
    <static>true</static>
    <name>item147</name>
</include>
<include>
    <uri>model://racecar_description/models/cone</uri>
    <pose>-3 -1.8 0 0 0 0</pose>
    <static>true</static>
    <name>item148</name>
</include>
<include>
    <uri>model://racecar_description/models/cone</uri>
    <pose>-3.1 -2.1 0 0 0 0</pose>
    <static>true</static>
    <name>item149</name>
</include>

<include>
    <uri>model://first_2015_trash_can</uri>
    <pose>-1.16866 3.91428 0 0 0 0</pose>
    <static>true</static>
    <name>trash1</name>
</include>
<include>
    <uri>model://first_2015_trash_can</uri>
    <pose>-3.07606 -5.5255 0 0 0 0</pose>
    <static>true</static>
    <name>trash2</name>
</include>
<include>
    <uri>model://first_2015_trash_can</uri>
    <pose>5.90624 1.06402 0 0 0 0</pose>
    <static>true</static>
    <name>trash3</name>
</include>
<include>
    <uri>model://first_2015_trash_can</uri>
    <pose>1.97038 2.20912 0 0 0 0</pose>
    <static>true</static>
    <name>trash4</name>
</include>
<include>
    <uri>model://first_2015_trash_can</uri>
    <pose>-6.4085 -0.229251 0 0 0 0</pose>
    <static>true</static>
    <name>trash5</name>
</include>
<include>
    <uri>model://first_2015_trash_can</uri>
    <pose>-3.50799 -1.6762 0 0 0 0</pose>
    <static>true</static>
    <name>trash6</name>
</include>
<include>
    <uri>model://first_2015_trash_can</uri>
    <pose>3.88944 -4.17397 0 0 0 0</pose>
    <static>true</static>
    <name>trash7</name>
</include>
</world>
</sdf>
